[
    {
        "model": "polls.choice",
        "pk": 1,
        "fields": {
        "choice": "Coronaviruses (CoV) are a large family of viruses that cause illness",
        "votes": 7,
        "poll":1      
       }
    },
    {
        "model": "polls.choice",
        "pk": 2,
        "fields": {
          "choice": "I do not know",
          "votes": 2,
          "poll":1      
        }
    },
    {
        "model": "polls.choice",
        "pk": 3,
        "fields": {
          "choice": "Yes",
          "votes": 0,
          "poll":2     
          }
      },
      {
        "model": "polls.choice",
        "pk": 4,
        "fields": {
          "choice": "No",
          "votes": 0,
          "poll":2      
          }
      }

]